<?xml version="1.0" encoding="UTF-8"?>
<svg width="19px" height="19px" viewBox="0 0 19 19" version="1.1" xmlns="http://www.w3.org/2000/svg" xmlns:xlink="http://www.w3.org/1999/xlink">
    <!-- Generator: Sketch 46.2 (44496) - http://www.bohemiancoding.com/sketch -->
    <title>close copy</title>
    <desc>Created with Sketch.</desc>
    <defs></defs>
    <g id="ocean_fresh_final" stroke="none" stroke-width="1" fill="none" fill-rule="evenodd">
        <g id="our_products_popup" transform="translate(-1242.000000, -21.000000)" fill="#231F20">
            <g id="popup" transform="translate(256.000000, 0.000000)">
                <g id="close" transform="translate(965.000000, 0.000000)">
                    <g id="Group-8" transform="translate(21.000000, 21.000000)">
                        <polygon id="close-copy" points="17.5929059 -9.9518644e-05 9.50004976 8.09275661 1.40719363 -9.9518644e-05 0 1.40709411 8.09285613 9.49895505 0 17.5928064 1.40719363 19 9.50004976 10.9071439 17.5929059 19 19.0000995 17.5928064 10.9072434 9.49895505 19.0000995 1.40709411"></polygon>
                    </g>
                </g>
            </g>
        </g>
    </g>
</svg>