<!-- Generated by IcoMoon.io -->
<svg version="1.1" xmlns="http://www.w3.org/2000/svg" width="32" height="32" viewBox="0 0 32 32">
<title>instagram</title>
<path d="M22.315 7.787c0 1.088 0.875 1.984 1.984 1.984 1.088 0 1.984-0.896 1.984-1.984s-0.896-1.984-1.984-1.984c-1.109 0-1.984 0.896-1.984 1.984zM10.944 16c0-2.795 2.261-5.056 5.056-5.056s5.056 2.261 5.056 5.056c0 2.795-2.261 5.056-5.056 5.056s-5.056-2.261-5.056-5.056zM7.723 16c0 4.565 3.712 8.277 8.277 8.277s8.277-3.712 8.277-8.277c0-4.565-3.712-8.277-8.277-8.277s-8.277 3.712-8.277 8.277zM28.779 22.464c0 3.499-2.816 6.315-6.315 6.315h-12.928c-3.477 0-6.315-2.816-6.315-6.315v-12.928c0-3.499 2.837-6.315 6.315-6.315h12.928c3.499 0 6.315 2.816 6.315 6.315zM9.536 0c-5.248 0-9.536 4.267-9.536 9.536v12.928c0 5.248 4.288 9.536 9.536 9.536h12.928c5.269 0 9.536-4.288 9.536-9.536v-12.928c0-5.269-4.267-9.536-9.536-9.536z"></path>
</svg>
